%YAML 1.1
%TAG !u! tag:unity3d.com,2011:
--- !u!21 &2100000
Material:
  serializedVersion: 6
  m_ObjectHideFlags: 0
  m_PrefabParentObject: {fileID: 0}
  m_PrefabInternal: {fileID: 0}
  m_Name: Standard Caustics
  m_Shader: {fileID: 4800000, guid: e4ff0d6b102022045b95b0cae817bc3d, type: 3}
  m_ShaderKeywords: 
  m_LightmapFlags: 5
  m_EnableInstancingVariants: 0
  m_DoubleSidedGI: 0
  m_CustomRenderQueue: -1
  stringTagMap: {}
  disabledShaderPasses: []
  m_SavedProperties:
    serializedVersion: 3
    m_TexEnvs:
    - _MainTex:
        m_Texture: {fileID: 0}
        m_Scale: {x: 1, y: 1}
        m_Offset: {x: 0, y: 0}
    - _Pattern:
        m_Texture: {fileID: 2800000, guid: 890865ac41abb5c41a5ed14e7f7dbbdf, type: 3}
        m_Scale: {x: 1, y: 1}
        m_Offset: {x: 0, y: 0}
    - _Pattern0:
        m_Texture: {fileID: 2800000, guid: 890865ac41abb5c41a5ed14e7f7dbbdf, type: 3}
        m_Scale: {x: 0.1, y: 0.1}
        m_Offset: {x: 0, y: 0}
    - _Pattern1:
        m_Texture: {fileID: 2800000, guid: 890865ac41abb5c41a5ed14e7f7dbbdf, type: 3}
        m_Scale: {x: 0.1, y: 0.1}
        m_Offset: {x: 0, y: 0}
    - ot_Pattern0:
        m_Texture: {fileID: 2800000, guid: 608324813d97648558f9cea212cc0b37, type: 3}
        m_Scale: {x: 0.1, y: 0.1}
        m_Offset: {x: -0.00000005948294, y: 1.3608111}
    - ot_Pattern1:
        m_Texture: {fileID: 2800000, guid: 608324813d97648558f9cea212cc0b37, type: 3}
        m_Scale: {x: 0.15, y: 0.15}
        m_Offset: {x: -1.8274593, y: 0.32223064}
    m_Floats:
    - _RampDepth: 0.5
    - _StartAtDepth: 0.25
    - ot_CausticsAmbient: 0.05
    - ot_RampDepth: 1
    - ot_StartAtDepth: 0.25
    - ot_Strength: 0.5
    m_Colors: []
