%YAML 1.1
%TAG !u! tag:unity3d.com,2011:
--- !u!29 &1
OcclusionCullingSettings:
  m_ObjectHideFlags: 0
  serializedVersion: 2
  m_OcclusionBakeSettings:
    smallestOccluder: 5
    smallestHole: 0.25
    backfaceThreshold: 100
  m_SceneGUID: 00000000000000000000000000000000
  m_OcclusionCullingData: {fileID: 0}
--- !u!104 &2
RenderSettings:
  m_ObjectHideFlags: 0
  serializedVersion: 8
  m_Fog: 0
  m_FogColor: {r: 0.5, g: 0.5, b: 0.5, a: 1}
  m_FogMode: 3
  m_FogDensity: 0.01
  m_LinearFogStart: 0
  m_LinearFogEnd: 300
  m_AmbientSkyColor: {r: 0.212, g: 0.227, b: 0.259, a: 1}
  m_AmbientEquatorColor: {r: 0.114, g: 0.125, b: 0.133, a: 1}
  m_AmbientGroundColor: {r: 0.047, g: 0.043, b: 0.035, a: 1}
  m_AmbientIntensity: 1
  m_AmbientMode: 0
  m_SubtractiveShadowColor: {r: 0.42, g: 0.478, b: 0.627, a: 1}
  m_SkyboxMaterial: {fileID: 10304, guid: 0000000000000000f000000000000000, type: 0}
  m_HaloStrength: 0.5
  m_FlareStrength: 1
  m_FlareFadeSpeed: 3
  m_HaloTexture: {fileID: 0}
  m_SpotCookie: {fileID: 10001, guid: 0000000000000000e000000000000000, type: 0}
  m_DefaultReflectionMode: 0
  m_DefaultReflectionResolution: 128
  m_ReflectionBounces: 1
  m_ReflectionIntensity: 1
  m_CustomReflection: {fileID: 0}
  m_Sun: {fileID: 0}
  m_IndirectSpecularColor: {r: 0, g: 0, b: 0, a: 1}
--- !u!157 &3
LightmapSettings:
  m_ObjectHideFlags: 0
  serializedVersion: 9
  m_GIWorkflowMode: 1
  m_GISettings:
    serializedVersion: 2
    m_BounceScale: 1
    m_IndirectOutputScale: 1
    m_AlbedoBoost: 1
    m_TemporalCoherenceThreshold: 1
    m_EnvironmentLightingMode: 0
    m_EnableBakedLightmaps: 1
    m_EnableRealtimeLightmaps: 1
  m_LightmapEditorSettings:
    serializedVersion: 8
    m_Resolution: 2
    m_BakeResolution: 40
    m_TextureWidth: 1024
    m_TextureHeight: 1024
    m_AO: 0
    m_AOMaxDistance: 1
    m_CompAOExponent: 1
    m_CompAOExponentDirect: 0
    m_Padding: 2
    m_LightmapParameters: {fileID: 0}
    m_LightmapsBakeMode: 1
    m_TextureCompression: 1
    m_FinalGather: 0
    m_FinalGatherFiltering: 1
    m_FinalGatherRayCount: 256
    m_ReflectionCompression: 2
    m_MixedBakeMode: 3
    m_BakeBackend: 0
    m_PVRSampling: 1
    m_PVRDirectSampleCount: 32
    m_PVRSampleCount: 500
    m_PVRBounces: 2
    m_PVRFiltering: 0
    m_PVRFilteringMode: 1
    m_PVRCulling: 1
    m_PVRFilteringGaussRadiusDirect: 1
    m_PVRFilteringGaussRadiusIndirect: 5
    m_PVRFilteringGaussRadiusAO: 2
    m_PVRFilteringAtrousColorSigma: 1
    m_PVRFilteringAtrousNormalSigma: 1
    m_PVRFilteringAtrousPositionSigma: 1
  m_LightingDataAsset: {fileID: 0}
  m_ShadowMaskMode: 2
--- !u!196 &4
NavMeshSettings:
  serializedVersion: 2
  m_ObjectHideFlags: 0
  m_BuildSettings:
    serializedVersion: 2
    agentTypeID: 0
    agentRadius: 0.5
    agentHeight: 2
    agentSlope: 45
    agentClimb: 0.4
    ledgeDropHeight: 0
    maxJumpAcrossDistance: 0
    minRegionArea: 2
    manualCellSize: 0
    cellSize: 0.16666667
    manualTileSize: 0
    tileSize: 256
    accuratePlacement: 0
  m_NavMeshData: {fileID: 0}
--- !u!1 &18206369
GameObject:
  m_ObjectHideFlags: 0
  m_PrefabParentObject: {fileID: 0}
  m_PrefabInternal: {fileID: 0}
  serializedVersion: 5
  m_Component:
  - component: {fileID: 18206371}
  - component: {fileID: 18206370}
  m_Layer: 0
  m_Name: Directional Light
  m_TagString: Untagged
  m_Icon: {fileID: 0}
  m_NavMeshLayer: 0
  m_StaticEditorFlags: 0
  m_IsActive: 1
--- !u!108 &18206370
Light:
  m_ObjectHideFlags: 0
  m_PrefabParentObject: {fileID: 0}
  m_PrefabInternal: {fileID: 0}
  m_GameObject: {fileID: 18206369}
  m_Enabled: 1
  serializedVersion: 8
  m_Type: 1
  m_Color: {r: 1, g: 0.95686275, b: 0.8392157, a: 1}
  m_Intensity: 1
  m_Range: 10
  m_SpotAngle: 30
  m_CookieSize: 10
  m_Shadows:
    m_Type: 2
    m_Resolution: -1
    m_CustomResolution: -1
    m_Strength: 1
    m_Bias: 0.05
    m_NormalBias: 0.4
    m_NearPlane: 0.2
  m_Cookie: {fileID: 0}
  m_DrawHalo: 0
  m_Flare: {fileID: 0}
  m_RenderMode: 0
  m_CullingMask:
    serializedVersion: 2
    m_Bits: 4294967295
  m_Lightmapping: 4
  m_AreaSize: {x: 1, y: 1}
  m_BounceIntensity: 1
  m_ColorTemperature: 6570
  m_UseColorTemperature: 0
  m_ShadowRadius: 0
  m_ShadowAngle: 0
--- !u!4 &18206371
Transform:
  m_ObjectHideFlags: 0
  m_PrefabParentObject: {fileID: 0}
  m_PrefabInternal: {fileID: 0}
  m_GameObject: {fileID: 18206369}
  m_LocalRotation: {x: 0.40821788, y: -0.23456968, z: 0.10938163, w: 0.8754261}
  m_LocalPosition: {x: 0, y: 3, z: 0}
  m_LocalScale: {x: 1, y: 1, z: 1}
  m_Children: []
  m_Father: {fileID: 0}
  m_RootOrder: 0
  m_LocalEulerAnglesHint: {x: 50, y: -30, z: 0}
--- !u!223 &46113972
Canvas:
  m_ObjectHideFlags: 0
  m_PrefabParentObject: {fileID: 223498586829503172, guid: c2cdc0218ba6f8c4791a9e51937122c8,
    type: 2}
  m_PrefabInternal: {fileID: 0}
  m_GameObject: {fileID: 519387276}
  m_Enabled: 1
  serializedVersion: 3
  m_RenderMode: 0
  m_Camera: {fileID: 0}
  m_PlaneDistance: 100
  m_PixelPerfect: 0
  m_ReceivesEvents: 1
  m_OverrideSorting: 0
  m_OverridePixelPerfect: 0
  m_SortingBucketNormalizedSize: 0
  m_AdditionalShaderChannelsFlag: 0
  m_SortingLayerID: 0
  m_SortingOrder: 0
  m_TargetDisplay: 0
--- !u!1 &49807146
GameObject:
  m_ObjectHideFlags: 0
  m_PrefabParentObject: {fileID: 0}
  m_PrefabInternal: {fileID: 0}
  serializedVersion: 5
  m_Component:
  - component: {fileID: 49807147}
  m_Layer: 0
  m_Name: '----------------------'
  m_TagString: Untagged
  m_Icon: {fileID: 0}
  m_NavMeshLayer: 0
  m_StaticEditorFlags: 0
  m_IsActive: 1
--- !u!4 &49807147
Transform:
  m_ObjectHideFlags: 0
  m_PrefabParentObject: {fileID: 0}
  m_PrefabInternal: {fileID: 0}
  m_GameObject: {fileID: 49807146}
  m_LocalRotation: {x: 0, y: 0, z: 0, w: 1}
  m_LocalPosition: {x: 0, y: -10.4121895, z: 12.573396}
  m_LocalScale: {x: 1, y: 1, z: 1}
  m_Children: []
  m_Father: {fileID: 0}
  m_RootOrder: 6
  m_LocalEulerAnglesHint: {x: 0, y: 0, z: 0}
--- !u!1001 &78565138
Prefab:
  m_ObjectHideFlags: 0
  serializedVersion: 2
  m_Modification:
    m_TransformParent: {fileID: 847121986}
    m_Modifications:
    - target: {fileID: 114165750419983716, guid: 19ed68c2513f99d4eab64f107628d2b9,
        type: 2}
      propertyPath: ApplyEvents.m_PersistentCalls.m_Calls.Array.size
      value: 0
      objectReference: {fileID: 0}
    - target: {fileID: 4405465626674330, guid: 19ed68c2513f99d4eab64f107628d2b9, type: 2}
      propertyPath: m_LocalPosition.x
      value: 0
      objectReference: {fileID: 0}
    - target: {fileID: 4405465626674330, guid: 19ed68c2513f99d4eab64f107628d2b9, type: 2}
      propertyPath: m_LocalPosition.y
      value: 0
      objectReference: {fileID: 0}
    - target: {fileID: 4405465626674330, guid: 19ed68c2513f99d4eab64f107628d2b9, type: 2}
      propertyPath: m_LocalPosition.z
      value: 0
      objectReference: {fileID: 0}
    - target: {fileID: 4405465626674330, guid: 19ed68c2513f99d4eab64f107628d2b9, type: 2}
      propertyPath: m_LocalRotation.x
      value: -0
      objectReference: {fileID: 0}
    - target: {fileID: 4405465626674330, guid: 19ed68c2513f99d4eab64f107628d2b9, type: 2}
      propertyPath: m_LocalRotation.y
      value: -0
      objectReference: {fileID: 0}
    - target: {fileID: 4405465626674330, guid: 19ed68c2513f99d4eab64f107628d2b9, type: 2}
      propertyPath: m_LocalRotation.z
      value: -0
      objectReference: {fileID: 0}
    - target: {fileID: 4405465626674330, guid: 19ed68c2513f99d4eab64f107628d2b9, type: 2}
      propertyPath: m_LocalRotation.w
      value: 1
      objectReference: {fileID: 0}
    - target: {fileID: 4405465626674330, guid: 19ed68c2513f99d4eab64f107628d2b9, type: 2}
      propertyPath: m_RootOrder
      value: 0
      objectReference: {fileID: 0}
    - target: {fileID: 1848465979828718, guid: 19ed68c2513f99d4eab64f107628d2b9, type: 2}
      propertyPath: m_Name
      value: State1
      objectReference: {fileID: 0}
    - target: {fileID: 114165750419983716, guid: 19ed68c2513f99d4eab64f107628d2b9,
        type: 2}
      propertyPath: StateDescription
      value: Default image button demo
      objectReference: {fileID: 0}
    - target: {fileID: 114165750419983716, guid: 19ed68c2513f99d4eab64f107628d2b9,
        type: 2}
      propertyPath: ApplyEvents.m_PersistentCalls.m_Calls.Array.data[0].m_Target
      value: 
      objectReference: {fileID: 0}
    - target: {fileID: 114165750419983716, guid: 19ed68c2513f99d4eab64f107628d2b9,
        type: 2}
      propertyPath: ApplyEvents.m_PersistentCalls.m_Calls.Array.data[0].m_MethodName
      value: PlayDefinedClip
      objectReference: {fileID: 0}
    - target: {fileID: 114165750419983716, guid: 19ed68c2513f99d4eab64f107628d2b9,
        type: 2}
      propertyPath: ApplyEvents.m_PersistentCalls.m_Calls.Array.data[0].m_Mode
      value: 2
      objectReference: {fileID: 0}
    - target: {fileID: 114165750419983716, guid: 19ed68c2513f99d4eab64f107628d2b9,
        type: 2}
      propertyPath: ApplyEvents.m_PersistentCalls.m_Calls.Array.data[0].m_Arguments.m_ObjectArgumentAssemblyTypeName
      value: UnityEngine.AnimationClip, UnityEngine
      objectReference: {fileID: 0}
    - target: {fileID: 114165750419983716, guid: 19ed68c2513f99d4eab64f107628d2b9,
        type: 2}
      propertyPath: ApplyEvents.m_PersistentCalls.m_Calls.Array.data[0].m_Arguments.m_FloatArgument
      value: 0
      objectReference: {fileID: 0}
    - target: {fileID: 114165750419983716, guid: 19ed68c2513f99d4eab64f107628d2b9,
        type: 2}
      propertyPath: ApplyEvents.m_PersistentCalls.m_Calls.Array.data[0].m_CallState
      value: 2
      objectReference: {fileID: 0}
    - target: {fileID: 114165750419983716, guid: 19ed68c2513f99d4eab64f107628d2b9,
        type: 2}
      propertyPath: ApplyEvents.m_PersistentCalls.m_Calls.Array.data[1].m_Target
      value: 
      objectReference: {fileID: 0}
    - target: {fileID: 114165750419983716, guid: 19ed68c2513f99d4eab64f107628d2b9,
        type: 2}
      propertyPath: ApplyEvents.m_PersistentCalls.m_Calls.Array.data[1].m_MethodName
      value: Play
      objectReference: {fileID: 0}
    - target: {fileID: 114165750419983716, guid: 19ed68c2513f99d4eab64f107628d2b9,
        type: 2}
      propertyPath: ApplyEvents.m_PersistentCalls.m_Calls.Array.data[1].m_Mode
      value: 1
      objectReference: {fileID: 0}
    - target: {fileID: 114165750419983716, guid: 19ed68c2513f99d4eab64f107628d2b9,
        type: 2}
      propertyPath: ApplyEvents.m_PersistentCalls.m_Calls.Array.data[1].m_Arguments.m_ObjectArgumentAssemblyTypeName
      value: UnityEngine.Object, UnityEngine
      objectReference: {fileID: 0}
    - target: {fileID: 114165750419983716, guid: 19ed68c2513f99d4eab64f107628d2b9,
        type: 2}
      propertyPath: ApplyEvents.m_PersistentCalls.m_Calls.Array.data[1].m_Arguments.m_FloatArgument
      value: 0
      objectReference: {fileID: 0}
    - target: {fileID: 114165750419983716, guid: 19ed68c2513f99d4eab64f107628d2b9,
        type: 2}
      propertyPath: ApplyEvents.m_PersistentCalls.m_Calls.Array.data[1].m_CallState
      value: 2
      objectReference: {fileID: 0}
    - target: {fileID: 114165750419983716, guid: 19ed68c2513f99d4eab64f107628d2b9,
        type: 2}
      propertyPath: MyHotspot
      value: 
      objectReference: {fileID: 134449353}
    - target: {fileID: 114165750419983716, guid: 19ed68c2513f99d4eab64f107628d2b9,
        type: 2}
      propertyPath: ApplyEvents.m_PersistentCalls.m_Calls.Array.data[2].m_Mode
      value: 1
      objectReference: {fileID: 0}
    - target: {fileID: 114165750419983716, guid: 19ed68c2513f99d4eab64f107628d2b9,
        type: 2}
      propertyPath: ApplyEvents.m_PersistentCalls.m_Calls.Array.data[2].m_CallState
      value: 2
      objectReference: {fileID: 0}
    - target: {fileID: 114165750419983716, guid: 19ed68c2513f99d4eab64f107628d2b9,
        type: 2}
      propertyPath: ApplyEvents.m_PersistentCalls.m_Calls.Array.data[2].m_Target
      value: 
      objectReference: {fileID: 0}
    - target: {fileID: 114165750419983716, guid: 19ed68c2513f99d4eab64f107628d2b9,
        type: 2}
      propertyPath: ApplyEvents.m_PersistentCalls.m_Calls.Array.data[2].m_MethodName
      value: Play
      objectReference: {fileID: 0}
    - target: {fileID: 114165750419983716, guid: 19ed68c2513f99d4eab64f107628d2b9,
        type: 2}
      propertyPath: ApplyEvents.m_PersistentCalls.m_Calls.Array.data[2].m_Arguments.m_ObjectArgumentAssemblyTypeName
      value: UnityEngine.Object, UnityEngine
      objectReference: {fileID: 0}
    - target: {fileID: 114165750419983716, guid: 19ed68c2513f99d4eab64f107628d2b9,
        type: 2}
      propertyPath: ApplyEvents.m_PersistentCalls.m_Calls.Array.data[0].m_Arguments.m_ObjectArgument
      value: 
      objectReference: {fileID: 7400000, guid: ca8b6be02d53b0c489b1e9c8a672ba68, type: 3}
    - target: {fileID: 114165750419983716, guid: 19ed68c2513f99d4eab64f107628d2b9,
        type: 2}
      propertyPath: ApplyEvents.m_PersistentCalls.m_Calls.Array.data[0].m_Arguments.m_StringArgument
      value: clip1
      objectReference: {fileID: 0}
    m_RemovedComponents:
    - {fileID: 0}
    - {fileID: 0}
    - {fileID: 0}
    - {fileID: 0}
  m_ParentPrefab: {fileID: 100100000, guid: 19ed68c2513f99d4eab64f107628d2b9, type: 2}
  m_IsPrefabParent: 0
--- !u!4 &78565139 stripped
Transform:
  m_PrefabParentObject: {fileID: 4405465626674330, guid: 19ed68c2513f99d4eab64f107628d2b9,
    type: 2}
  m_PrefabInternal: {fileID: 78565138}
--- !u!1 &78565140 stripped
GameObject:
  m_PrefabParentObject: {fileID: 1848465979828718, guid: 19ed68c2513f99d4eab64f107628d2b9,
    type: 2}
  m_PrefabInternal: {fileID: 78565138}
--- !u!114 &78565141
MonoBehaviour:
  m_ObjectHideFlags: 0
  m_PrefabParentObject: {fileID: 0}
  m_PrefabInternal: {fileID: 0}
  m_GameObject: {fileID: 78565140}
  m_Enabled: 1
  m_EditorHideFlags: 0
  m_Script: {fileID: 11500000, guid: 0a4e1e0c92d1fcb4c975a5e95de58b13, type: 3}
  m_Name: 
  m_EditorClassIdentifier: 
  MyImage:
    MySprite: {fileID: 21300000, guid: 3c51f0505df8ace4085bc6439a41c10b, type: 3}
    ShowName: 0
    ImageName: 
--- !u!1 &134449353
GameObject:
  m_ObjectHideFlags: 0
  m_PrefabParentObject: {fileID: 1660843294733746, guid: a3728dd16f0203a4d9531d6385037b01,
    type: 2}
  m_PrefabInternal: {fileID: 0}
  serializedVersion: 5
  m_Component:
  - component: {fileID: 134449359}
  - component: {fileID: 134449358}
  m_Layer: 0
  m_Name: HotSpot_Overview
  m_TagString: Untagged
  m_Icon: {fileID: 0}
  m_NavMeshLayer: 0
  m_StaticEditorFlags: 0
  m_IsActive: 1
--- !u!114 &134449358
MonoBehaviour:
  m_ObjectHideFlags: 0
  m_PrefabParentObject: {fileID: 114332510774313808, guid: a3728dd16f0203a4d9531d6385037b01,
    type: 2}
  m_PrefabInternal: {fileID: 0}
  m_GameObject: {fileID: 134449353}
  m_Enabled: 1
  m_EditorHideFlags: 0
  m_Script: {fileID: 11500000, guid: 0167164cf47a3a946800f7d30572050f, type: 3}
  m_Name: 
  m_EditorClassIdentifier: 
  PressHotSpotEvent:
    _id: State1Activate
  CamObject: {fileID: 0}
  LookAtObject: {fileID: 892143064}
  lookAtObjectTrackingMode: 0
  LookAtObjectDeltaMove: {x: 0, y: 0, z: 0}
  slaveCameraMode: 0
  hotspotMoveToMode: 0
  buttonPrefab: 0
  buttonShowMode: 0
  hideBackButton: 1
  cameraFov: 70
  HideSiblingsWhenActive: 0
  LockPosition: 0
  LockRotation: 0
  Button: {fileID: 0}
  UseCameraAnglesLimit: 0
  MinCameraAngle: 15
  MaxCameraAngle: 35
  UseCameraZoomDistanceLimit: 0
  MinZoomDistance: 10
  MaxZoomDistance: 50
  AllowUserInterruptCameraTransition: 1
  DistanceToInterruptCameraTransition: 0
  CustomButtonPosition: {fileID: 0}
  autoOrbitSpeed: 0
  autoOrbitDelay: 0
  useCameraSettingFromHotSpotCamera: 0
  GizmosRadius: 0.2
  GizmoColor: {r: 0.5, g: 0.5, b: 0.5, a: 1}
  State: {fileID: 0}
  OverrideStateViscoComponents: 0
  cameraStartGoingToActions:
    List: []
  cameraArriveActions:
    List: []
  cameraLeaveActions:
    List: []
  backButtonActions:
    List: []
  MyCommonTools:
    viscoButtonList: {fileID: 0}
    viscoButtonsSize: {x: 0, y: 0}
    viscoDescriptionManager: {fileID: 0}
    viscoVideoManager: {fileID: 0}
    viscoImageManager: {fileID: 0}
    sideMenuManager: {fileID: 0}
--- !u!4 &134449359
Transform:
  m_ObjectHideFlags: 0
  m_PrefabParentObject: {fileID: 4066327539237156, guid: a3728dd16f0203a4d9531d6385037b01,
    type: 2}
  m_PrefabInternal: {fileID: 0}
  m_GameObject: {fileID: 134449353}
  m_LocalRotation: {x: -0.45212334, y: 0, z: -0, w: 0.89195544}
  m_LocalPosition: {x: 0, y: 8.53, z: -3.66}
  m_LocalScale: {x: 1, y: 1, z: 1}
  m_Children:
  - {fileID: 892143067}
  m_Father: {fileID: 0}
  m_RootOrder: 5
  m_LocalEulerAnglesHint: {x: 0, y: 0, z: 0}
--- !u!1 &251922921
GameObject:
  m_ObjectHideFlags: 0
  m_PrefabParentObject: {fileID: 1055881946897836, guid: c2cdc0218ba6f8c4791a9e51937122c8,
    type: 2}
  m_PrefabInternal: {fileID: 0}
  serializedVersion: 5
  m_Component:
  - component: {fileID: 251922922}
  - component: {fileID: 251922924}
  - component: {fileID: 251922923}
  m_Layer: 0
  m_Name: EventSystem
  m_TagString: Untagged
  m_Icon: {fileID: 0}
  m_NavMeshLayer: 0
  m_StaticEditorFlags: 0
  m_IsActive: 1
--- !u!4 &251922922
Transform:
  m_ObjectHideFlags: 0
  m_PrefabParentObject: {fileID: 4762959441957288, guid: c2cdc0218ba6f8c4791a9e51937122c8,
    type: 2}
  m_PrefabInternal: {fileID: 0}
  m_GameObject: {fileID: 251922921}
  m_LocalRotation: {x: -0, y: -0, z: -0, w: 1}
  m_LocalPosition: {x: -512, y: -384, z: 0}
  m_LocalScale: {x: 1, y: 1, z: 1}
  m_Children: []
  m_Father: {fileID: 519387280}
  m_RootOrder: 0
  m_LocalEulerAnglesHint: {x: 0, y: 0, z: 0}
--- !u!114 &251922923
MonoBehaviour:
  m_ObjectHideFlags: 0
  m_PrefabParentObject: {fileID: 114316353712662938, guid: c2cdc0218ba6f8c4791a9e51937122c8,
    type: 2}
  m_PrefabInternal: {fileID: 0}
  m_GameObject: {fileID: 251922921}
  m_Enabled: 1
  m_EditorHideFlags: 0
  m_Script: {fileID: 1077351063, guid: f5f67c52d1564df4a8936ccd202a3bd8, type: 3}
  m_Name: 
  m_EditorClassIdentifier: 
  m_HorizontalAxis: Horizontal
  m_VerticalAxis: Vertical
  m_SubmitButton: Submit
  m_CancelButton: Cancel
  m_InputActionsPerSecond: 10
  m_RepeatDelay: 0.5
  m_ForceModuleActive: 0
--- !u!114 &251922924
MonoBehaviour:
  m_ObjectHideFlags: 0
  m_PrefabParentObject: {fileID: 114829417490161782, guid: c2cdc0218ba6f8c4791a9e51937122c8,
    type: 2}
  m_PrefabInternal: {fileID: 0}
  m_GameObject: {fileID: 251922921}
  m_Enabled: 1
  m_EditorHideFlags: 0
  m_Script: {fileID: -619905303, guid: f5f67c52d1564df4a8936ccd202a3bd8, type: 3}
  m_Name: 
  m_EditorClassIdentifier: 
  m_FirstSelected: {fileID: 0}
  m_sendNavigationEvents: 1
  m_DragThreshold: 5
--- !u!1 &342922035
GameObject:
  m_ObjectHideFlags: 0
  m_PrefabParentObject: {fileID: 0}
  m_PrefabInternal: {fileID: 0}
  serializedVersion: 5
  m_Component:
  - component: {fileID: 342922039}
  - component: {fileID: 342922038}
  - component: {fileID: 342922037}
  - component: {fileID: 342922036}
  m_Layer: 0
  m_Name: Ground plane
  m_TagString: Untagged
  m_Icon: {fileID: 0}
  m_NavMeshLayer: 0
  m_StaticEditorFlags: 0
  m_IsActive: 1
--- !u!23 &342922036
MeshRenderer:
  m_ObjectHideFlags: 0
  m_PrefabParentObject: {fileID: 0}
  m_PrefabInternal: {fileID: 0}
  m_GameObject: {fileID: 342922035}
  m_Enabled: 1
  m_CastShadows: 1
  m_ReceiveShadows: 1
  m_MotionVectors: 1
  m_LightProbeUsage: 1
  m_ReflectionProbeUsage: 1
  m_Materials:
  - {fileID: 2100000, guid: 8bbcd5b4df05dcd40a0faa4dae43785b, type: 2}
  m_StaticBatchInfo:
    firstSubMesh: 0
    subMeshCount: 0
  m_StaticBatchRoot: {fileID: 0}
  m_ProbeAnchor: {fileID: 0}
  m_LightProbeVolumeOverride: {fileID: 0}
  m_ScaleInLightmap: 1
  m_PreserveUVs: 1
  m_IgnoreNormalsForChartDetection: 0
  m_ImportantGI: 0
  m_SelectedEditorRenderState: 3
  m_MinimumChartSize: 4
  m_AutoUVMaxDistance: 0.5
  m_AutoUVMaxAngle: 89
  m_LightmapParameters: {fileID: 0}
  m_SortingLayerID: 0
  m_SortingLayer: 0
  m_SortingOrder: 0
--- !u!64 &342922037
MeshCollider:
  m_ObjectHideFlags: 0
  m_PrefabParentObject: {fileID: 0}
  m_PrefabInternal: {fileID: 0}
  m_GameObject: {fileID: 342922035}
  m_Material: {fileID: 0}
  m_IsTrigger: 0
  m_Enabled: 1
  serializedVersion: 2
  m_Convex: 0
  m_InflateMesh: 0
  m_SkinWidth: 0.01
  m_Mesh: {fileID: 10209, guid: 0000000000000000e000000000000000, type: 0}
--- !u!33 &342922038
MeshFilter:
  m_ObjectHideFlags: 0
  m_PrefabParentObject: {fileID: 0}
  m_PrefabInternal: {fileID: 0}
  m_GameObject: {fileID: 342922035}
  m_Mesh: {fileID: 10209, guid: 0000000000000000e000000000000000, type: 0}
--- !u!4 &342922039
Transform:
  m_ObjectHideFlags: 0
  m_PrefabParentObject: {fileID: 0}
  m_PrefabInternal: {fileID: 0}
  m_GameObject: {fileID: 342922035}
  m_LocalRotation: {x: 0, y: 0, z: 0, w: 1}
  m_LocalPosition: {x: 0.05, y: 3.55, z: 1.4}
  m_LocalScale: {x: 1, y: 1, z: 1}
  m_Children:
  - {fileID: 1507454564}
  m_Father: {fileID: 0}
  m_RootOrder: 1
  m_LocalEulerAnglesHint: {x: 0, y: 0, z: 0}
--- !u!1 &353051146
GameObject:
  m_ObjectHideFlags: 0
  m_PrefabParentObject: {fileID: 0}
  m_PrefabInternal: {fileID: 0}
  serializedVersion: 5
  m_Component:
  - component: {fileID: 353051147}
  m_Layer: 0
  m_Name: '----------------------'
  m_TagString: Untagged
  m_Icon: {fileID: 0}
  m_NavMeshLayer: 0
  m_StaticEditorFlags: 0
  m_IsActive: 1
--- !u!4 &353051147
Transform:
  m_ObjectHideFlags: 0
  m_PrefabParentObject: {fileID: 0}
  m_PrefabInternal: {fileID: 0}
  m_GameObject: {fileID: 353051146}
  m_LocalRotation: {x: 0, y: 0, z: 0, w: 1}
  m_LocalPosition: {x: 2.5893898, y: -10.4121895, z: 12.573396}
  m_LocalScale: {x: 1, y: 1, z: 1}
  m_Children: []
  m_Father: {fileID: 0}
  m_RootOrder: 2
  m_LocalEulerAnglesHint: {x: 0, y: 0, z: 0}
--- !u!1 &425819660
GameObject:
  m_ObjectHideFlags: 0
  m_PrefabParentObject: {fileID: 0}
  m_PrefabInternal: {fileID: 0}
  serializedVersion: 5
  m_Component:
  - component: {fileID: 425819661}
  m_Layer: 0
  m_Name: '----------------------'
  m_TagString: Untagged
  m_Icon: {fileID: 0}
  m_NavMeshLayer: 0
  m_StaticEditorFlags: 0
  m_IsActive: 1
--- !u!4 &425819661
Transform:
  m_ObjectHideFlags: 0
  m_PrefabParentObject: {fileID: 0}
  m_PrefabInternal: {fileID: 0}
  m_GameObject: {fileID: 425819660}
  m_LocalRotation: {x: 0, y: 0, z: 0, w: 1}
  m_LocalPosition: {x: 2.5893898, y: -10.4121895, z: 12.573396}
  m_LocalScale: {x: 1, y: 1, z: 1}
  m_Children: []
  m_Father: {fileID: 0}
  m_RootOrder: 4
  m_LocalEulerAnglesHint: {x: 0, y: 0, z: 0}
--- !u!1 &519387276
GameObject:
  m_ObjectHideFlags: 0
  m_PrefabParentObject: {fileID: 1026542382243578, guid: c2cdc0218ba6f8c4791a9e51937122c8,
    type: 2}
  m_PrefabInternal: {fileID: 0}
  serializedVersion: 5
  m_Component:
  - component: {fileID: 519387280}
  - component: {fileID: 46113972}
  - component: {fileID: 519387279}
  - component: {fileID: 519387278}
  - component: {fileID: 519387277}
  m_Layer: 5
  m_Name: Canvas
  m_TagString: Untagged
  m_Icon: {fileID: 0}
  m_NavMeshLayer: 0
  m_StaticEditorFlags: 0
  m_IsActive: 1
--- !u!114 &519387277
MonoBehaviour:
  m_ObjectHideFlags: 0
  m_PrefabParentObject: {fileID: 0}
  m_PrefabInternal: {fileID: 0}
  m_GameObject: {fileID: 519387276}
  m_Enabled: 1
  m_EditorHideFlags: 0
  m_Script: {fileID: 11500000, guid: 8388a98cb14f3f7459a49ea31b4e425d, type: 3}
  m_Name: 
  m_EditorClassIdentifier: 
  DefaultContextMenuButtonsSize: {x: 100, y: 60}
  BackButon: {fileID: 0}
  DefaultTextBox: {fileID: 0}
  DefaultVideoButton: {fileID: 0}
  DefaultVideoPlayer: {fileID: 0}
  DefaultImageButton: {fileID: 0}
  ContextMenu: {fileID: 0}
  SideMenu: {fileID: 0}
  showPrevNextButtons: 0
  PreviousStateButton: {fileID: 0}
  NextStateButton: {fileID: 0}
--- !u!114 &519387278
MonoBehaviour:
  m_ObjectHideFlags: 0
  m_PrefabParentObject: {fileID: 114096086203689800, guid: c2cdc0218ba6f8c4791a9e51937122c8,
    type: 2}
  m_PrefabInternal: {fileID: 0}
  m_GameObject: {fileID: 519387276}
  m_Enabled: 1
  m_EditorHideFlags: 0
  m_Script: {fileID: 1301386320, guid: f5f67c52d1564df4a8936ccd202a3bd8, type: 3}
  m_Name: 
  m_EditorClassIdentifier: 
  m_IgnoreReversedGraphics: 1
  m_BlockingObjects: 0
  m_BlockingMask:
    serializedVersion: 2
    m_Bits: 4294967295
--- !u!114 &519387279
MonoBehaviour:
  m_ObjectHideFlags: 0
  m_PrefabParentObject: {fileID: 114688416903817852, guid: c2cdc0218ba6f8c4791a9e51937122c8,
    type: 2}
  m_PrefabInternal: {fileID: 0}
  m_GameObject: {fileID: 519387276}
  m_Enabled: 1
  m_EditorHideFlags: 0
  m_Script: {fileID: 1980459831, guid: f5f67c52d1564df4a8936ccd202a3bd8, type: 3}
  m_Name: 
  m_EditorClassIdentifier: 
  m_UiScaleMode: 1
  m_ReferencePixelsPerUnit: 100
  m_ScaleFactor: 1
  m_ReferenceResolution: {x: 1024, y: 768}
  m_ScreenMatchMode: 0
  m_MatchWidthOrHeight: 0.5
  m_PhysicalUnit: 3
  m_FallbackScreenDPI: 96
  m_DefaultSpriteDPI: 96
  m_DynamicPixelsPerUnit: 1
--- !u!224 &519387280
RectTransform:
  m_ObjectHideFlags: 0
  m_PrefabParentObject: {fileID: 224841421265852876, guid: c2cdc0218ba6f8c4791a9e51937122c8,
    type: 2}
  m_PrefabInternal: {fileID: 0}
  m_GameObject: {fileID: 519387276}
  m_LocalRotation: {x: 0, y: 0, z: 0, w: 1}
  m_LocalPosition: {x: 0, y: 0, z: 0}
  m_LocalScale: {x: 0, y: 0, z: 0}
  m_Children:
  - {fileID: 251922922}
  m_Father: {fileID: 0}
  m_RootOrder: 3
  m_LocalEulerAnglesHint: {x: 0, y: 0, z: 0}
  m_AnchorMin: {x: 0, y: 0}
  m_AnchorMax: {x: 0, y: 0}
  m_AnchoredPosition: {x: 0, y: 0}
  m_SizeDelta: {x: 0, y: 0}
  m_Pivot: {x: 0, y: 0}
--- !u!1 &818186781
GameObject:
  m_ObjectHideFlags: 0
  m_PrefabParentObject: {fileID: 1217176448734728, guid: a43094ac3481d9d47a0512c761175ab0,
    type: 2}
  m_PrefabInternal: {fileID: 0}
  serializedVersion: 5
  m_Component:
  - component: {fileID: 818186786}
  - component: {fileID: 1604530901}
  - component: {fileID: 818186785}
  - component: {fileID: 818186784}
  - component: {fileID: 818186783}
  - component: {fileID: 818186782}
  m_Layer: 0
  m_Name: MainCamera
  m_TagString: MainCamera
  m_Icon: {fileID: 0}
  m_NavMeshLayer: 0
  m_StaticEditorFlags: 0
  m_IsActive: 1
--- !u!114 &818186782
MonoBehaviour:
  m_ObjectHideFlags: 0
  m_PrefabParentObject: {fileID: 114236889611316036, guid: a43094ac3481d9d47a0512c761175ab0,
    type: 2}
  m_PrefabInternal: {fileID: 0}
  m_GameObject: {fileID: 818186781}
  m_Enabled: 1
  m_EditorHideFlags: 0
  m_Script: {fileID: 11500000, guid: 4045d8fbb022dc843958e9ce15735d29, type: 3}
  m_Name: 
  m_EditorClassIdentifier: 
  xSpeed: 1
  ySpeed: 1
  zSpeed: 2
  smoothTime: 2
  TransitionTime: 1
  cameraGhostTarget: {fileID: 0}
  hotspot: {fileID: 0}
--- !u!81 &818186783
AudioListener:
  m_ObjectHideFlags: 0
  m_PrefabParentObject: {fileID: 81518317853745094, guid: a43094ac3481d9d47a0512c761175ab0,
    type: 2}
  m_PrefabInternal: {fileID: 0}
  m_GameObject: {fileID: 818186781}
  m_Enabled: 1
--- !u!124 &818186784
Behaviour:
  m_ObjectHideFlags: 0
  m_PrefabParentObject: {fileID: 124894590065620874, guid: a43094ac3481d9d47a0512c761175ab0,
    type: 2}
  m_PrefabInternal: {fileID: 0}
  m_GameObject: {fileID: 818186781}
  m_Enabled: 1
--- !u!92 &818186785
Behaviour:
  m_ObjectHideFlags: 0
  m_PrefabParentObject: {fileID: 92251108512242382, guid: a43094ac3481d9d47a0512c761175ab0,
    type: 2}
  m_PrefabInternal: {fileID: 0}
  m_GameObject: {fileID: 818186781}
  m_Enabled: 1
--- !u!4 &818186786
Transform:
  m_ObjectHideFlags: 0
  m_PrefabParentObject: {fileID: 4093839411033640, guid: a43094ac3481d9d47a0512c761175ab0,
    type: 2}
  m_PrefabInternal: {fileID: 0}
  m_GameObject: {fileID: 818186781}
  m_LocalRotation: {x: 0.038662344, y: -0.028467845, z: -0.0011014747, w: -0.9988462}
  m_LocalPosition: {x: -0.15893173, y: 3.8952632, z: -0.06928635}
  m_LocalScale: {x: 1, y: 1, z: 1}
  m_Children: []
  m_Father: {fileID: 0}
  m_RootOrder: 7
  m_LocalEulerAnglesHint: {x: 29.249, y: 0, z: 0}
--- !u!1 &847121983
GameObject:
  m_ObjectHideFlags: 0
  m_PrefabParentObject: {fileID: 1997203491067738, guid: 38efd17b436d2e246b759666bfaf01d5,
    type: 2}
  m_PrefabInternal: {fileID: 0}
  serializedVersion: 5
  m_Component:
  - component: {fileID: 847121986}
  - component: {fileID: 847121985}
  - component: {fileID: 847121984}
  m_Layer: 0
  m_Name: StatesRootObject
  m_TagString: Untagged
  m_Icon: {fileID: 0}
  m_NavMeshLayer: 0
  m_StaticEditorFlags: 0
  m_IsActive: 1
--- !u!114 &847121984
MonoBehaviour:
  m_ObjectHideFlags: 0
  m_PrefabParentObject: {fileID: 114633891729892524, guid: 38efd17b436d2e246b759666bfaf01d5,
    type: 2}
  m_PrefabInternal: {fileID: 0}
  m_GameObject: {fileID: 847121983}
  m_Enabled: 1
  m_EditorHideFlags: 0
  m_Script: {fileID: 11500000, guid: 8ba1cb39d356ac34e8325dd711974ed0, type: 3}
  m_Name: 
  m_EditorClassIdentifier: 
  "main\u0421amera": {fileID: 1604530901}
--- !u!114 &847121985
MonoBehaviour:
  m_ObjectHideFlags: 0
  m_PrefabParentObject: {fileID: 114476120821248764, guid: 38efd17b436d2e246b759666bfaf01d5,
    type: 2}
  m_PrefabInternal: {fileID: 0}
  m_GameObject: {fileID: 847121983}
  m_Enabled: 1
  m_EditorHideFlags: 0
  m_Script: {fileID: 11500000, guid: 8fd0d59304ef41140b78916f48784120, type: 3}
  m_Name: 
  m_EditorClassIdentifier: 
  currentState: {fileID: 0}
  previousState: {fileID: 0}
  presentationIsLinear: 0
  rootHotSpotObject: {fileID: 0}
--- !u!4 &847121986
Transform:
  m_ObjectHideFlags: 0
  m_PrefabParentObject: {fileID: 4006068992052426, guid: 38efd17b436d2e246b759666bfaf01d5,
    type: 2}
  m_PrefabInternal: {fileID: 0}
  m_GameObject: {fileID: 847121983}
  m_LocalRotation: {x: -0, y: -0, z: -0, w: 1}
  m_LocalPosition: {x: 0, y: 0, z: 0}
  m_LocalScale: {x: 1, y: 1, z: 1}
  m_Children:
  - {fileID: 78565139}
  m_Father: {fileID: 0}
  m_RootOrder: 8
  m_LocalEulerAnglesHint: {x: 0, y: 0, z: 0}
--- !u!1 &892143064
GameObject:
  m_ObjectHideFlags: 0
  m_PrefabParentObject: {fileID: 1483431701259134, guid: a3728dd16f0203a4d9531d6385037b01,
    type: 2}
  m_PrefabInternal: {fileID: 0}
  serializedVersion: 5
  m_Component:
  - component: {fileID: 892143067}
  - component: {fileID: 892143066}
  - component: {fileID: 892143065}
  m_Layer: 0
  m_Name: lookatObject
  m_TagString: Untagged
  m_Icon: {fileID: 0}
  m_NavMeshLayer: 0
  m_StaticEditorFlags: 0
  m_IsActive: 1
--- !u!23 &892143065
MeshRenderer:
  m_ObjectHideFlags: 0
  m_PrefabParentObject: {fileID: 23517347904240506, guid: a3728dd16f0203a4d9531d6385037b01,
    type: 2}
  m_PrefabInternal: {fileID: 0}
  m_GameObject: {fileID: 892143064}
  m_Enabled: 0
  m_CastShadows: 1
  m_ReceiveShadows: 1
  m_MotionVectors: 1
  m_LightProbeUsage: 1
  m_ReflectionProbeUsage: 1
  m_Materials:
  - {fileID: 2100000, guid: 13a5863e502c82f4e956d6f5a6886e64, type: 2}
  m_StaticBatchInfo:
    firstSubMesh: 0
    subMeshCount: 0
  m_StaticBatchRoot: {fileID: 0}
  m_ProbeAnchor: {fileID: 0}
  m_LightProbeVolumeOverride: {fileID: 0}
  m_ScaleInLightmap: 1
  m_PreserveUVs: 1
  m_IgnoreNormalsForChartDetection: 0
  m_ImportantGI: 0
  m_SelectedEditorRenderState: 3
  m_MinimumChartSize: 4
  m_AutoUVMaxDistance: 0.5
  m_AutoUVMaxAngle: 89
  m_LightmapParameters: {fileID: 0}
  m_SortingLayerID: 0
  m_SortingLayer: 0
  m_SortingOrder: 0
--- !u!33 &892143066
MeshFilter:
  m_ObjectHideFlags: 0
  m_PrefabParentObject: {fileID: 33298887186206334, guid: a3728dd16f0203a4d9531d6385037b01,
    type: 2}
  m_PrefabInternal: {fileID: 0}
  m_GameObject: {fileID: 892143064}
  m_Mesh: {fileID: 10202, guid: 0000000000000000e000000000000000, type: 0}
--- !u!4 &892143067
Transform:
  m_ObjectHideFlags: 0
  m_PrefabParentObject: {fileID: 4896575685874760, guid: a3728dd16f0203a4d9531d6385037b01,
    type: 2}
  m_PrefabInternal: {fileID: 0}
  m_GameObject: {fileID: 892143064}
  m_LocalRotation: {x: -0, y: -0, z: -0, w: 1}
  m_LocalPosition: {x: -0.24, y: -7.0251527, z: -1.0252924}
  m_LocalScale: {x: 1, y: 1, z: 1}
  m_Children: []
  m_Father: {fileID: 134449359}
  m_RootOrder: 0
  m_LocalEulerAnglesHint: {x: 0, y: 0, z: 0}
--- !u!1 &1507454563
GameObject:
  m_ObjectHideFlags: 0
  m_PrefabParentObject: {fileID: 0}
  m_PrefabInternal: {fileID: 0}
  serializedVersion: 5
  m_Component:
  - component: {fileID: 1507454564}
  - component: {fileID: 1507454567}
  - component: {fileID: 1507454566}
  - component: {fileID: 1507454565}
  m_Layer: 0
  m_Name: YellowCube
  m_TagString: Untagged
  m_Icon: {fileID: 0}
  m_NavMeshLayer: 0
  m_StaticEditorFlags: 0
  m_IsActive: 1
--- !u!4 &1507454564
Transform:
  m_ObjectHideFlags: 0
  m_PrefabParentObject: {fileID: 0}
  m_PrefabInternal: {fileID: 0}
  m_GameObject: {fileID: 1507454563}
  m_LocalRotation: {x: -0, y: -0, z: -0, w: 1}
  m_LocalPosition: {x: -0.05, y: 0.526, z: 0.739}
  m_LocalScale: {x: 1, y: 1, z: 1}
  m_Children: []
  m_Father: {fileID: 342922039}
  m_RootOrder: 0
  m_LocalEulerAnglesHint: {x: 0, y: 273.22916, z: 0}
--- !u!23 &1507454565
MeshRenderer:
  m_ObjectHideFlags: 0
  m_PrefabParentObject: {fileID: 0}
  m_PrefabInternal: {fileID: 0}
  m_GameObject: {fileID: 1507454563}
  m_Enabled: 1
  m_CastShadows: 1
  m_ReceiveShadows: 1
  m_MotionVectors: 1
  m_LightProbeUsage: 1
  m_ReflectionProbeUsage: 1
  m_Materials:
  - {fileID: 2100000, guid: 0abcb47794122c84b9d0ed83b8b3fa8d, type: 2}
  m_StaticBatchInfo:
    firstSubMesh: 0
    subMeshCount: 0
  m_StaticBatchRoot: {fileID: 0}
  m_ProbeAnchor: {fileID: 0}
  m_LightProbeVolumeOverride: {fileID: 0}
  m_ScaleInLightmap: 1
  m_PreserveUVs: 1
  m_IgnoreNormalsForChartDetection: 0
  m_ImportantGI: 0
  m_SelectedEditorRenderState: 3
  m_MinimumChartSize: 4
  m_AutoUVMaxDistance: 0.5
  m_AutoUVMaxAngle: 89
  m_LightmapParameters: {fileID: 0}
  m_SortingLayerID: 0
  m_SortingLayer: 0
  m_SortingOrder: 0
--- !u!65 &1507454566
BoxCollider:
  m_ObjectHideFlags: 0
  m_PrefabParentObject: {fileID: 0}
  m_PrefabInternal: {fileID: 0}
  m_GameObject: {fileID: 1507454563}
  m_Material: {fileID: 0}
  m_IsTrigger: 0
  m_Enabled: 1
  serializedVersion: 2
  m_Size: {x: 1, y: 1, z: 1}
  m_Center: {x: 0, y: 0, z: 0}
--- !u!33 &1507454567
MeshFilter:
  m_ObjectHideFlags: 0
  m_PrefabParentObject: {fileID: 0}
  m_PrefabInternal: {fileID: 0}
  m_GameObject: {fileID: 1507454563}
  m_Mesh: {fileID: 10202, guid: 0000000000000000e000000000000000, type: 0}
--- !u!20 &1604530901
Camera:
  m_ObjectHideFlags: 0
  m_PrefabParentObject: {fileID: 20303982426187242, guid: a43094ac3481d9d47a0512c761175ab0,
    type: 2}
  m_PrefabInternal: {fileID: 0}
  m_GameObject: {fileID: 818186781}
  m_Enabled: 1
  serializedVersion: 2
  m_ClearFlags: 2
  m_BackGroundColor: {r: 0.45496324, g: 0.45496324, b: 0.625, a: 0}
  m_NormalizedViewPortRect:
    serializedVersion: 2
    x: 0
    y: 0
    width: 1
    height: 1
  near clip plane: 0.3
  far clip plane: 1000
  field of view: 96
  orthographic: 0
  orthographic size: 5
  m_Depth: -1
  m_CullingMask:
    serializedVersion: 2
    m_Bits: 4294967295
  m_RenderingPath: -1
  m_TargetTexture: {fileID: 0}
  m_TargetDisplay: 0
  m_TargetEye: 3
  m_HDR: 1
  m_AllowMSAA: 1
  m_ForceIntoRT: 0
  m_OcclusionCulling: 1
  m_StereoConvergence: 10
  m_StereoSeparation: 0.022
  m_StereoMirrorMode: 0
