%YAML 1.1
%TAG !u! tag:unity3d.com,2011:
--- !u!1 &123562
GameObject:
  m_ObjectHideFlags: 0
  m_PrefabParentObject: {fileID: 0}
  m_PrefabInternal: {fileID: 100100000}
  serializedVersion: 5
  m_Component:
  - component: {fileID: 426888}
  - component: {fileID: 11424874}
  m_Layer: 0
  m_Name: PuddleHolder
  m_TagString: Untagged
  m_Icon: {fileID: 0}
  m_NavMeshLayer: 0
  m_StaticEditorFlags: 0
  m_IsActive: 1
--- !u!1 &182814
GameObject:
  m_ObjectHideFlags: 0
  m_PrefabParentObject: {fileID: 0}
  m_PrefabInternal: {fileID: 100100000}
  serializedVersion: 5
  m_Component:
  - component: {fileID: 429800}
  - component: {fileID: 3344064}
  - component: {fileID: 2373132}
  - component: {fileID: 6515882}
  m_Layer: 0
  m_Name: Puddle
  m_TagString: Untagged
  m_Icon: {fileID: 0}
  m_NavMeshLayer: 0
  m_StaticEditorFlags: 0
  m_IsActive: 1
--- !u!4 &426888
Transform:
  m_ObjectHideFlags: 1
  m_PrefabParentObject: {fileID: 0}
  m_PrefabInternal: {fileID: 100100000}
  m_GameObject: {fileID: 123562}
  m_LocalRotation: {x: 0, y: 0, z: 0, w: 1}
  m_LocalPosition: {x: 0.2, y: 0.11, z: -0.2}
  m_LocalScale: {x: 5, y: 1, z: 5}
  m_Children:
  - {fileID: 429800}
  m_Father: {fileID: 0}
  m_RootOrder: 0
  m_LocalEulerAnglesHint: {x: 0, y: 0, z: 0}
--- !u!4 &429800
Transform:
  m_ObjectHideFlags: 1
  m_PrefabParentObject: {fileID: 0}
  m_PrefabInternal: {fileID: 100100000}
  m_GameObject: {fileID: 182814}
  m_LocalRotation: {x: 0, y: 0, z: 0, w: 1}
  m_LocalPosition: {x: 0, y: 0, z: 0}
  m_LocalScale: {x: 1, y: 1, z: 1}
  m_Children: []
  m_Father: {fileID: 426888}
  m_RootOrder: 0
  m_LocalEulerAnglesHint: {x: 0, y: 0, z: 0}
--- !u!23 &2373132
MeshRenderer:
  m_ObjectHideFlags: 1
  m_PrefabParentObject: {fileID: 0}
  m_PrefabInternal: {fileID: 100100000}
  m_GameObject: {fileID: 182814}
  m_Enabled: 1
  m_CastShadows: 0
  m_ReceiveShadows: 1
  m_MotionVectors: 1
  m_LightProbeUsage: 1
  m_ReflectionProbeUsage: 1
  m_Materials:
  - {fileID: 2100000, guid: 9497d8982c4e4d74cb719a6bd9938051, type: 2}
  m_StaticBatchInfo:
    firstSubMesh: 0
    subMeshCount: 0
  m_StaticBatchRoot: {fileID: 0}
  m_ProbeAnchor: {fileID: 0}
  m_LightProbeVolumeOverride: {fileID: 0}
  m_ScaleInLightmap: 1
  m_PreserveUVs: 1
  m_IgnoreNormalsForChartDetection: 0
  m_ImportantGI: 0
  m_SelectedEditorRenderState: 3
  m_MinimumChartSize: 4
  m_AutoUVMaxDistance: 0.5
  m_AutoUVMaxAngle: 89
  m_LightmapParameters: {fileID: 0}
  m_SortingLayerID: 0
  m_SortingOrder: 0
--- !u!33 &3344064
MeshFilter:
  m_ObjectHideFlags: 1
  m_PrefabParentObject: {fileID: 0}
  m_PrefabInternal: {fileID: 100100000}
  m_GameObject: {fileID: 182814}
  m_Mesh: {fileID: 10209, guid: 0000000000000000e000000000000000, type: 0}
--- !u!65 &6515882
BoxCollider:
  m_ObjectHideFlags: 1
  m_PrefabParentObject: {fileID: 0}
  m_PrefabInternal: {fileID: 100100000}
  m_GameObject: {fileID: 182814}
  m_Material: {fileID: 0}
  m_IsTrigger: 1
  m_Enabled: 1
  serializedVersion: 2
  m_Size: {x: 10, y: 0.1, z: 10}
  m_Center: {x: 0, y: 0, z: 0}
--- !u!114 &11424874
MonoBehaviour:
  m_ObjectHideFlags: 1
  m_PrefabParentObject: {fileID: 0}
  m_PrefabInternal: {fileID: 100100000}
  m_GameObject: {fileID: 123562}
  m_Enabled: 1
  m_EditorHideFlags: 0
  m_Script: {fileID: 11500000, guid: 315253847e428574ba8702741dc1c261, type: 3}
  m_Name: 
  m_EditorClassIdentifier: 
  puddleObject: {fileID: 182814}
  isRaining: 0
  useWaveAnimation: 0
  waveSpeed: {x: 0, y: 0}
  useRipples: 1
  RippleFrames:
  - {fileID: 2800000, guid: 7a953f0e7bcbc6e40bbcb1139ccf26d4, type: 3}
  - {fileID: 2800000, guid: e7fa350e865b9784c83588fab3aff175, type: 3}
  - {fileID: 2800000, guid: 63fb02644511f7b4c84cdcd16cf769c5, type: 3}
  - {fileID: 2800000, guid: b1262ddfc61c5ae42a8b58d7d0e6963e, type: 3}
  - {fileID: 2800000, guid: fa8866b0cf202aa498e0fcd11fdc1d78, type: 3}
  - {fileID: 2800000, guid: dc473e6397f08bc44a32d47b88795b11, type: 3}
  - {fileID: 2800000, guid: 3943406988250d240ba162211b55d0e1, type: 3}
  - {fileID: 2800000, guid: 8a40933d0ee471448a533ea2c04a1896, type: 3}
  - {fileID: 2800000, guid: f0fb71f1347b60342a86811e05849f8f, type: 3}
  - {fileID: 2800000, guid: 29b2ef283c0288d49b94bc7210b84dee, type: 3}
  - {fileID: 2800000, guid: 03ebbf794e6f48c4faf2a042173801a7, type: 3}
  - {fileID: 2800000, guid: 4feb4bf812eb608419064e67f3355c8e, type: 3}
  - {fileID: 2800000, guid: 54c3bdaffd14748448bfae282e5949a6, type: 3}
  - {fileID: 2800000, guid: 5f1a98adaff0bf640b68f586857f17c0, type: 3}
  - {fileID: 2800000, guid: 80b16b54d46540e4ab9669ecfa5121cf, type: 3}
  - {fileID: 2800000, guid: 4b0dbd42526abd746ad4f84f8f4601b2, type: 3}
  - {fileID: 2800000, guid: 6b69129e407968742a4e574059add8dd, type: 3}
  - {fileID: 2800000, guid: 9763005569f4bd5468afc9320f90312f, type: 3}
  - {fileID: 2800000, guid: f86b7dd9428f1874c95afea7b9a72bd9, type: 3}
  - {fileID: 2800000, guid: f51c3812742dab54cb03a8835c2212eb, type: 3}
  - {fileID: 2800000, guid: 16d7d3ab55fb8f946b97348e91d02568, type: 3}
  - {fileID: 2800000, guid: 73cd451865434524592212725a51ef67, type: 3}
  - {fileID: 2800000, guid: 28baf3361000faf40b755ee7928a77d0, type: 3}
  - {fileID: 2800000, guid: b34027f216e29124a9813cb57b7717e5, type: 3}
  - {fileID: 2800000, guid: 0b16e5b017566094c992f9cde6b7a512, type: 3}
  - {fileID: 2800000, guid: 21ffc731a47b3a94ea41c213097788e8, type: 3}
  - {fileID: 2800000, guid: 260f65ff9c78125439e78886d4632795, type: 3}
  - {fileID: 2800000, guid: 406f6ac38c4cfce42bfbdf3f4243f607, type: 3}
  - {fileID: 2800000, guid: 6c80928b7318384438e85fccbf27b7ea, type: 3}
  - {fileID: 2800000, guid: 2e1200c29a57cc044abe2228cb5544e7, type: 3}
  RippleAnimationSpeed: 40
  maxFloodHeight: 0.07
  minFloodHeight: -0.1
  floodVal: 0
--- !u!1001 &100100000
Prefab:
  m_ObjectHideFlags: 1
  serializedVersion: 2
  m_Modification:
    m_TransformParent: {fileID: 0}
    m_Modifications: []
    m_RemovedComponents: []
  m_ParentPrefab: {fileID: 0}
  m_RootGameObject: {fileID: 123562}
  m_IsPrefabParent: 1
