%YAML 1.1
%TAG !u! tag:unity3d.com,2011:
--- !u!114 &11400000
MonoBehaviour:
  m_ObjectHideFlags: 0
  m_PrefabParentObject: {fileID: 0}
  m_PrefabInternal: {fileID: 0}
  m_GameObject: {fileID: 0}
  m_Enabled: 1
  m_EditorHideFlags: 0
  m_Script: {fileID: 11500000, guid: ad9e871a73fc09d488bc058f3b382b35, type: 3}
  m_Name: Cloudy 2
  m_EditorClassIdentifier: 
  version: 1.9.0
  Name: Cloudy 2
  Spring: 1
  possibiltyInSpring: 38.9
  Summer: 1
  possibiltyInSummer: 49.3
  Autumn: 1
  possibiltyInAutumn: 41.8
  winter: 1
  possibiltyInWinter: 54.5
  cloudsConfig:
    topColor: {r: 0.7977941, g: 0.8504563, b: 0.9117647, a: 1}
    bottomColor: {r: 0.4221453, g: 0.44853836, b: 0.4705882, a: 1}
    skyBlending: 0.934
    alphaCoef: 5.06
    scatteringCoef: 0.244
    density: 1.25
    coverage: 0.38
    coverageHeight: 1.358
    raymarchingScale: 1
    cloudType: 1
    cirrusAlpha: 0
    cirrusCoverage: 0
    cirrusColorPow: 2.17
    flatAlpha: 1.496
    flatCoverage: 0.507
    flatSoftness: 0.11
    flatBrightness: 0.977
    flatColorPow: 2.73
  fogStartDistance: 0
  fogDistance: 0
  fogDensity: 0.00015
  weatherSkyMod:
    key0:
      serializedVersion: 2
      rgba: 16777215
    key1:
      serializedVersion: 2
      rgba: 16777215
    key2:
      serializedVersion: 2
      rgba: 0
    key3:
      serializedVersion: 2
      rgba: 0
    key4:
      serializedVersion: 2
      rgba: 0
    key5:
      serializedVersion: 2
      rgba: 0
    key6:
      serializedVersion: 2
      rgba: 0
    key7:
      serializedVersion: 2
      rgba: 0
    ctime0: 0
    ctime1: 65535
    ctime2: 0
    ctime3: 0
    ctime4: 0
    ctime5: 0
    ctime6: 0
    ctime7: 0
    atime0: 0
    atime1: 65535
    atime2: 0
    atime3: 0
    atime4: 0
    atime5: 0
    atime6: 0
    atime7: 0
    m_Mode: 0
    m_NumColorKeys: 2
    m_NumAlphaKeys: 2
  weatherLightMod:
    key0:
      serializedVersion: 2
      rgba: 16777215
    key1:
      serializedVersion: 2
      rgba: 16777215
    key2:
      serializedVersion: 2
      rgba: 0
    key3:
      serializedVersion: 2
      rgba: 0
    key4:
      serializedVersion: 2
      rgba: 0
    key5:
      serializedVersion: 2
      rgba: 0
    key6:
      serializedVersion: 2
      rgba: 0
    key7:
      serializedVersion: 2
      rgba: 0
    ctime0: 0
    ctime1: 65535
    ctime2: 0
    ctime3: 0
    ctime4: 0
    ctime5: 0
    ctime6: 0
    ctime7: 0
    atime0: 0
    atime1: 65535
    atime2: 0
    atime3: 0
    atime4: 0
    atime5: 0
    atime6: 0
    atime7: 0
    m_Mode: 0
    m_NumColorKeys: 2
    m_NumAlphaKeys: 2
  weatherFogMod:
    key0:
      serializedVersion: 2
      rgba: 4026531840
    key1:
      serializedVersion: 2
      rgba: 3774873600
    key2:
      serializedVersion: 2
      rgba: 14791854
    key3:
      serializedVersion: 2
      rgba: 3032452204
    key4:
      serializedVersion: 2
      rgba: 0
    key5:
      serializedVersion: 2
      rgba: 0
    key6:
      serializedVersion: 2
      rgba: 0
    key7:
      serializedVersion: 2
      rgba: 0
    ctime0: 0
    ctime1: 36979
    ctime2: 38407
    ctime3: 65535
    ctime4: 0
    ctime5: 0
    ctime6: 0
    ctime7: 0
    atime0: 0
    atime1: 34409
    atime2: 36979
    atime3: 65535
    atime4: 0
    atime5: 0
    atime6: 0
    atime7: 0
    m_Mode: 0
    m_NumColorKeys: 4
    m_NumAlphaKeys: 4
  volumeLightIntensity: 1
  heightFogDensity: 1
  SkyFogHeight: 2
  SkyFogIntensity: 0.398
  FogScatteringIntensity: 1.1
  fogSunBlocking: 1
  effectSystems: []
  WindStrenght: 0.275
  wetnessLevel: 0
  snowLevel: 0
  isLightningStorm: 0
  lightningInterval: 10
  weatherSFX: {fileID: 0}
  SpringDayAmbient: {fileID: 8300000, guid: ce917758e82eec84dabb1ff43c16b92c, type: 3}
  SpringNightAmbient: {fileID: 8300000, guid: 81f1031d2329f8541969b05494e7c526, type: 3}
  SummerDayAmbient: {fileID: 8300000, guid: ce917758e82eec84dabb1ff43c16b92c, type: 3}
  SummerNightAmbient: {fileID: 8300000, guid: 81f1031d2329f8541969b05494e7c526, type: 3}
  AutumnDayAmbient: {fileID: 8300000, guid: ce917758e82eec84dabb1ff43c16b92c, type: 3}
  AutumnNightAmbient: {fileID: 8300000, guid: 81f1031d2329f8541969b05494e7c526, type: 3}
  WinterDayAmbient: {fileID: 0}
  WinterNightAmbient: {fileID: 0}
