%YAML 1.1
%TAG !u! tag:unity3d.com,2011:
--- !u!114 &11400000
MonoBehaviour:
  m_ObjectHideFlags: 0
  m_PrefabParentObject: {fileID: 0}
  m_PrefabInternal: {fileID: 0}
  m_GameObject: {fileID: 0}
  m_Enabled: 1
  m_EditorHideFlags: 0
  m_Script: {fileID: 11500000, guid: ad9e871a73fc09d488bc058f3b382b35, type: 3}
  m_Name: Foggy
  m_EditorClassIdentifier: 
  version: 1.9.0
  Name: Foggy 1
  Spring: 1
  possibiltyInSpring: 24
  Summer: 1
  possibiltyInSummer: 27.3
  Autumn: 1
  possibiltyInAutumn: 36.4
  winter: 1
  possibiltyInWinter: 21.5
  cloudsConfig:
    topColor: {r: 0.6985294, g: 0.6985294, b: 0.6985294, a: 1}
    bottomColor: {r: 0.25270328, g: 0.2671653, b: 0.30147058, a: 1}
    skyBlending: 1
    alphaCoef: 3.5
    scatteringCoef: 0.1
    density: 2.51
    coverage: -1
    coverageHeight: 1.513
    raymarchingScale: 1
    cloudType: 0.8
    cirrusAlpha: 1
    cirrusCoverage: 0
    cirrusColorPow: 2.03
    flatAlpha: 0
    flatCoverage: 0
    flatSoftness: 0.75
    flatBrightness: 0.75
    flatColorPow: 1
  fogStartDistance: 0
  fogDistance: 1000
  fogDensity: 0.001
  weatherSkyMod:
    key0:
      serializedVersion: 2
      rgba: 16777215
    key1:
      serializedVersion: 2
      rgba: 16777215
    key2:
      serializedVersion: 2
      rgba: 0
    key3:
      serializedVersion: 2
      rgba: 0
    key4:
      serializedVersion: 2
      rgba: 0
    key5:
      serializedVersion: 2
      rgba: 0
    key6:
      serializedVersion: 2
      rgba: 0
    key7:
      serializedVersion: 2
      rgba: 0
    ctime0: 0
    ctime1: 65535
    ctime2: 0
    ctime3: 0
    ctime4: 0
    ctime5: 0
    ctime6: 0
    ctime7: 0
    atime0: 0
    atime1: 65535
    atime2: 0
    atime3: 0
    atime4: 0
    atime5: 0
    atime6: 0
    atime7: 0
    m_Mode: 0
    m_NumColorKeys: 2
    m_NumAlphaKeys: 2
  weatherLightMod:
    key0:
      serializedVersion: 2
      rgba: 16777215
    key1:
      serializedVersion: 2
      rgba: 16777215
    key2:
      serializedVersion: 2
      rgba: 0
    key3:
      serializedVersion: 2
      rgba: 0
    key4:
      serializedVersion: 2
      rgba: 0
    key5:
      serializedVersion: 2
      rgba: 0
    key6:
      serializedVersion: 2
      rgba: 0
    key7:
      serializedVersion: 2
      rgba: 0
    ctime0: 0
    ctime1: 65535
    ctime2: 0
    ctime3: 0
    ctime4: 0
    ctime5: 0
    ctime6: 0
    ctime7: 0
    atime0: 0
    atime1: 65535
    atime2: 0
    atime3: 0
    atime4: 0
    atime5: 0
    atime6: 0
    atime7: 0
    m_Mode: 0
    m_NumColorKeys: 2
    m_NumAlphaKeys: 2
  weatherFogMod:
    key0:
      serializedVersion: 2
      rgba: 16777215
    key1:
      serializedVersion: 2
      rgba: 16777215
    key2:
      serializedVersion: 2
      rgba: 0
    key3:
      serializedVersion: 2
      rgba: 0
    key4:
      serializedVersion: 2
      rgba: 0
    key5:
      serializedVersion: 2
      rgba: 0
    key6:
      serializedVersion: 2
      rgba: 0
    key7:
      serializedVersion: 2
      rgba: 0
    ctime0: 0
    ctime1: 65535
    ctime2: 0
    ctime3: 0
    ctime4: 0
    ctime5: 0
    ctime6: 0
    ctime7: 0
    atime0: 0
    atime1: 65535
    atime2: 0
    atime3: 0
    atime4: 0
    atime5: 0
    atime6: 0
    atime7: 0
    m_Mode: 0
    m_NumColorKeys: 2
    m_NumAlphaKeys: 2
  volumeLightIntensity: 1
  heightFogDensity: 1.95
  SkyFogHeight: 0.31
  SkyFogIntensity: 2
  FogScatteringIntensity: 1
  fogSunBlocking: 0
  effectSystems: []
  WindStrenght: 0.274
  wetnessLevel: 0
  snowLevel: 0
  isLightningStorm: 0
  lightningInterval: 10
  weatherSFX: {fileID: 0}
  SpringDayAmbient: {fileID: 8300000, guid: ce917758e82eec84dabb1ff43c16b92c, type: 3}
  SpringNightAmbient: {fileID: 8300000, guid: 81f1031d2329f8541969b05494e7c526, type: 3}
  SummerDayAmbient: {fileID: 8300000, guid: ce917758e82eec84dabb1ff43c16b92c, type: 3}
  SummerNightAmbient: {fileID: 8300000, guid: 81f1031d2329f8541969b05494e7c526, type: 3}
  AutumnDayAmbient: {fileID: 8300000, guid: ce917758e82eec84dabb1ff43c16b92c, type: 3}
  AutumnNightAmbient: {fileID: 8300000, guid: 81f1031d2329f8541969b05494e7c526, type: 3}
  WinterDayAmbient: {fileID: 0}
  WinterNightAmbient: {fileID: 0}
