%YAML 1.1
%TAG !u! tag:unity3d.com,2011:
--- !u!114 &11400000
MonoBehaviour:
  m_ObjectHideFlags: 0
  m_PrefabParentObject: {fileID: 0}
  m_PrefabInternal: {fileID: 0}
  m_GameObject: {fileID: 0}
  m_Enabled: 1
  m_EditorHideFlags: 0
  m_Script: {fileID: 11500000, guid: ad9e871a73fc09d488bc058f3b382b35, type: 3}
  m_Name: Heavy Snow
  m_EditorClassIdentifier: 
  version: 1.9.0
  Name: Heavy Snow
  Spring: 0
  possibiltyInSpring: 50
  Summer: 0
  possibiltyInSummer: 50
  Autumn: 0
  possibiltyInAutumn: 50
  winter: 1
  possibiltyInWinter: 80.2
  cloudsConfig:
    topColor: {r: 0.60294116, g: 0.60294116, b: 0.60294116, a: 1}
    bottomColor: {r: 0.4496107, g: 0.45871612, b: 0.4852941, a: 1}
    skyBlending: 1
    alphaCoef: 5.88
    scatteringCoef: 0.202
    density: 1.95
    coverage: 1.47
    coverageHeight: 2
    raymarchingScale: 1
    cloudType: 0.295
    cirrusAlpha: 0
    cirrusCoverage: 0
    cirrusColorPow: 1
    flatAlpha: 1.272
    flatCoverage: 0.916
    flatSoftness: 0.914
    flatBrightness: 0.453
    flatColorPow: 2.12
  fogStartDistance: 0
  fogDistance: 1000
  fogDensity: 0.001
  weatherSkyMod:
    key0:
      serializedVersion: 2
      rgba: 0
    key1:
      serializedVersion: 2
      rgba: 218103808
    key2:
      serializedVersion: 2
      rgba: 3280044417
    key3:
      serializedVersion: 2
      rgba: 3934355841
    key4:
      serializedVersion: 2
      rgba: 0
    key5:
      serializedVersion: 2
      rgba: 0
    key6:
      serializedVersion: 2
      rgba: 0
    key7:
      serializedVersion: 2
      rgba: 0
    ctime0: 0
    ctime1: 29491
    ctime2: 32768
    ctime3: 65535
    ctime4: 0
    ctime5: 0
    ctime6: 0
    ctime7: 0
    atime0: 0
    atime1: 29491
    atime2: 32768
    atime3: 65535
    atime4: 0
    atime5: 0
    atime6: 0
    atime7: 0
    m_Mode: 0
    m_NumColorKeys: 4
    m_NumAlphaKeys: 4
  weatherLightMod:
    key0:
      serializedVersion: 2
      rgba: 0
    key1:
      serializedVersion: 2
      rgba: 218103808
    key2:
      serializedVersion: 2
      rgba: 1704959903
    key3:
      serializedVersion: 2
      rgba: 2510134685
    key4:
      serializedVersion: 2
      rgba: 0
    key5:
      serializedVersion: 2
      rgba: 0
    key6:
      serializedVersion: 2
      rgba: 0
    key7:
      serializedVersion: 2
      rgba: 0
    ctime0: 0
    ctime1: 29491
    ctime2: 32768
    ctime3: 65535
    ctime4: 0
    ctime5: 0
    ctime6: 0
    ctime7: 0
    atime0: 0
    atime1: 29491
    atime2: 32839
    atime3: 65535
    atime4: 0
    atime5: 0
    atime6: 0
    atime7: 0
    m_Mode: 0
    m_NumColorKeys: 4
    m_NumAlphaKeys: 4
  weatherFogMod:
    key0:
      serializedVersion: 2
      rgba: 0
    key1:
      serializedVersion: 2
      rgba: 218103808
    key2:
      serializedVersion: 2
      rgba: 3280044417
    key3:
      serializedVersion: 2
      rgba: 3934355841
    key4:
      serializedVersion: 2
      rgba: 0
    key5:
      serializedVersion: 2
      rgba: 0
    key6:
      serializedVersion: 2
      rgba: 0
    key7:
      serializedVersion: 2
      rgba: 0
    ctime0: 0
    ctime1: 29491
    ctime2: 32768
    ctime3: 65535
    ctime4: 0
    ctime5: 0
    ctime6: 0
    ctime7: 0
    atime0: 0
    atime1: 29491
    atime2: 32768
    atime3: 65535
    atime4: 65535
    atime5: 0
    atime6: 0
    atime7: 0
    m_Mode: 0
    m_NumColorKeys: 4
    m_NumAlphaKeys: 4
  volumeLightIntensity: 1
  heightFogDensity: 1.55
  SkyFogHeight: 0.62
  SkyFogIntensity: 1
  FogScatteringIntensity: 1.09
  fogSunBlocking: 0
  effectSystems:
  - prefab: {fileID: 1000012464414300, guid: 35c2de188ee7f814bb14d727a3388085, type: 2}
    localPositionOffset: {x: 0, y: 20, z: 0}
    localRotationOffset: {x: -90, y: 0, z: -180}
  - prefab: {fileID: 1000013790200260, guid: 31dd8ccc1924c534e8a366c92c8410f3, type: 2}
    localPositionOffset: {x: 0, y: 20, z: 0}
    localRotationOffset: {x: -90, y: 0, z: -180}
  WindStrenght: 0.203
  wetnessLevel: 0
  snowLevel: 1
  isLightningStorm: 0
  lightningInterval: 10
  weatherSFX: {fileID: 8300000, guid: 124d918942349f44e993561dfea7da62, type: 3}
  SpringDayAmbient: {fileID: 0}
  SpringNightAmbient: {fileID: 0}
  SummerDayAmbient: {fileID: 0}
  SummerNightAmbient: {fileID: 0}
  AutumnDayAmbient: {fileID: 0}
  AutumnNightAmbient: {fileID: 0}
  WinterDayAmbient: {fileID: 0}
  WinterNightAmbient: {fileID: 0}
