%YAML 1.1
%TAG !u! tag:unity3d.com,2011:
--- !u!114 &11400000
MonoBehaviour:
  m_ObjectHideFlags: 0
  m_PrefabParentObject: {fileID: 0}
  m_PrefabInternal: {fileID: 0}
  m_GameObject: {fileID: 0}
  m_Enabled: 1
  m_EditorHideFlags: 0
  m_Script: {fileID: 11500000, guid: ad9e871a73fc09d488bc058f3b382b35, type: 3}
  m_Name: Light Rain
  m_EditorClassIdentifier: 
  version: 1.9.0
  Name: Light Rain
  Spring: 1
  possibiltyInSpring: 100
  Summer: 1
  possibiltyInSummer: 52
  Autumn: 1
  possibiltyInAutumn: 100
  winter: 0
  possibiltyInWinter: 100
  cloudsConfig:
    topColor: {r: 0.75, g: 0.75, b: 0.75, a: 1}
    bottomColor: {r: 0.6317582, g: 0.65155935, b: 0.6985294, a: 1}
    skyBlending: 0.755
    alphaCoef: 3.45
    scatteringCoef: 0.052
    density: 1.575
    coverage: 2
    coverageHeight: 2
    raymarchingScale: 1
    cloudType: 1
    cirrusAlpha: 0
    cirrusCoverage: 0
    cirrusColorPow: 1
    flatAlpha: 1.844
    flatCoverage: 0.886
    flatSoftness: 0.939
    flatBrightness: 0.411
    flatColorPow: 1.78
  fogStartDistance: 0
  fogDistance: 0
  fogDensity: 0.0002
  weatherSkyMod:
    key0:
      serializedVersion: 2
      rgba: 4278190080
    key1:
      serializedVersion: 2
      rgba: 2835349504
    key2:
      serializedVersion: 2
      rgba: 3378733923
    key3:
      serializedVersion: 2
      rgba: 3666907280
    key4:
      serializedVersion: 2
      rgba: 8487297
    key5:
      serializedVersion: 2
      rgba: 0
    key6:
      serializedVersion: 2
      rgba: 0
    key7:
      serializedVersion: 2
      rgba: 0
    ctime0: 0
    ctime1: 29491
    ctime2: 32768
    ctime3: 65535
    ctime4: 65535
    ctime5: 0
    ctime6: 0
    ctime7: 0
    atime0: 0
    atime1: 29698
    atime2: 32768
    atime3: 65535
    atime4: 65535
    atime5: 0
    atime6: 0
    atime7: 0
    m_Mode: 0
    m_NumColorKeys: 4
    m_NumAlphaKeys: 4
  weatherLightMod:
    key0:
      serializedVersion: 2
      rgba: 0
    key1:
      serializedVersion: 2
      rgba: 218103808
    key2:
      serializedVersion: 2
      rgba: 3280044417
    key3:
      serializedVersion: 2
      rgba: 3934355841
    key4:
      serializedVersion: 2
      rgba: 0
    key5:
      serializedVersion: 2
      rgba: 0
    key6:
      serializedVersion: 2
      rgba: 0
    key7:
      serializedVersion: 2
      rgba: 0
    ctime0: 0
    ctime1: 29491
    ctime2: 32768
    ctime3: 65535
    ctime4: 0
    ctime5: 0
    ctime6: 0
    ctime7: 0
    atime0: 0
    atime1: 29491
    atime2: 32768
    atime3: 65535
    atime4: 65535
    atime5: 0
    atime6: 0
    atime7: 0
    m_Mode: 0
    m_NumColorKeys: 4
    m_NumAlphaKeys: 4
  weatherFogMod:
    key0:
      serializedVersion: 2
      rgba: 4278190080
    key1:
      serializedVersion: 2
      rgba: 4278190080
    key2:
      serializedVersion: 2
      rgba: 3830139723
    key3:
      serializedVersion: 2
      rgba: 3867246977
    key4:
      serializedVersion: 2
      rgba: 0
    key5:
      serializedVersion: 2
      rgba: 0
    key6:
      serializedVersion: 2
      rgba: 0
    key7:
      serializedVersion: 2
      rgba: 0
    ctime0: 0
    ctime1: 30412
    ctime2: 34695
    ctime3: 65535
    ctime4: 0
    ctime5: 0
    ctime6: 0
    ctime7: 0
    atime0: 0
    atime1: 29491
    atime2: 33124
    atime3: 65535
    atime4: 0
    atime5: 0
    atime6: 0
    atime7: 0
    m_Mode: 0
    m_NumColorKeys: 4
    m_NumAlphaKeys: 4
  volumeLightIntensity: 1
  heightFogDensity: 1
  SkyFogHeight: 0.92
  SkyFogIntensity: 0.95
  FogScatteringIntensity: 1
  fogSunBlocking: 0
  effectSystems:
  - prefab: {fileID: 1000011296922826, guid: 878d2b502b695f74bb2f63a69d4cf3fd, type: 2}
    localPositionOffset: {x: 0, y: 25, z: 0}
    localRotationOffset: {x: -90, y: 0, z: -180}
  WindStrenght: 0.209
  wetnessLevel: 0.5
  snowLevel: 0
  isLightningStorm: 0
  lightningInterval: 10
  weatherSFX: {fileID: 8300000, guid: 73716ab54e52cf04586b876dfe00246c, type: 3}
  SpringDayAmbient: {fileID: 0}
  SpringNightAmbient: {fileID: 0}
  SummerDayAmbient: {fileID: 0}
  SummerNightAmbient: {fileID: 0}
  AutumnDayAmbient: {fileID: 0}
  AutumnNightAmbient: {fileID: 0}
  WinterDayAmbient: {fileID: 0}
  WinterNightAmbient: {fileID: 0}
