%YAML 1.1
%TAG !u! tag:unity3d.com,2011:
--- !u!21 &2100000
Material:
  serializedVersion: 6
  m_ObjectHideFlags: 0
  m_PrefabParentObject: {fileID: 0}
  m_PrefabInternal: {fileID: 0}
  m_Name: ShaderTestFloor_SpingSummer
  m_Shader: {fileID: 4800000, guid: c511aa015accfb04790aa7cee51646b9, type: 3}
  m_ShaderKeywords: _DETAIL_MULX2 _NORMALMAP
  m_LightmapFlags: 1
  m_CustomRenderQueue: 2000
  stringTagMap: {}
  m_SavedProperties:
    serializedVersion: 2
    m_TexEnvs:
    - first:
        name: _AO
      second:
        m_Texture: {fileID: 0}
        m_Scale: {x: 1, y: 1}
        m_Offset: {x: 0, y: 0}
    - first:
        name: _Albedo
      second:
        m_Texture: {fileID: 2800000, guid: 0fcc7e49619be9b4ea81167a12ba81a7, type: 3}
        m_Scale: {x: 10, y: 10}
        m_Offset: {x: 0, y: 0}
    - first:
        name: _AlbedoMap
      second:
        m_Texture: {fileID: 2800000, guid: b96feb90cf7cef34cb81b61b2cdd1fd1, type: 3}
        m_Scale: {x: 5, y: 5}
        m_Offset: {x: 0, y: 0}
    - first:
        name: _AlbedoTex
      second:
        m_Texture: {fileID: 2800000, guid: e35cb05d11580174c8f13a59010dc374, type: 3}
        m_Scale: {x: 5, y: 5}
        m_Offset: {x: 0, y: 0}
    - first:
        name: _BumpMap
      second:
        m_Texture: {fileID: 2800000, guid: 49c8c0a39b876534bace0862a9060e46, type: 3}
        m_Scale: {x: 2, y: 2}
        m_Offset: {x: 0, y: 0}
    - first:
        name: _DetailAlbedo
      second:
        m_Texture: {fileID: 0}
        m_Scale: {x: 40, y: 40}
        m_Offset: {x: 0, y: 0}
    - first:
        name: _DetailAlbedoMap
      second:
        m_Texture: {fileID: 2800000, guid: e35cb05d11580174c8f13a59010dc374, type: 3}
        m_Scale: {x: 1, y: 1}
        m_Offset: {x: 0, y: 0}
    - first:
        name: _DetailMask
      second:
        m_Texture: {fileID: 0}
        m_Scale: {x: 1, y: 1}
        m_Offset: {x: 0, y: 0}
    - first:
        name: _DetailNormal
      second:
        m_Texture: {fileID: 0}
        m_Scale: {x: 40, y: 40}
        m_Offset: {x: 0, y: 0}
    - first:
        name: _DetailNormalMap
      second:
        m_Texture: {fileID: 2800000, guid: 49c8c0a39b876534bace0862a9060e46, type: 3}
        m_Scale: {x: 1, y: 1}
        m_Offset: {x: 0, y: 0}
    - first:
        name: _EmissionMap
      second:
        m_Texture: {fileID: 0}
        m_Scale: {x: 1, y: 1}
        m_Offset: {x: 0, y: 0}
    - first:
        name: _EmissionMap2
      second:
        m_Texture: {fileID: 0}
        m_Scale: {x: 1, y: 1}
        m_Offset: {x: 0, y: 0}
    - first:
        name: _EmissionMap_copy
      second:
        m_Texture: {fileID: 0}
        m_Scale: {x: 1, y: 1}
        m_Offset: {x: 0, y: 0}
    - first:
        name: _EmissionTex
      second:
        m_Texture: {fileID: 0}
        m_Scale: {x: 1, y: 1}
        m_Offset: {x: 0, y: 0}
    - first:
        name: _EmissionTexture
      second:
        m_Texture: {fileID: 0}
        m_Scale: {x: 1, y: 1}
        m_Offset: {x: 0, y: 0}
    - first:
        name: _HeightMap
      second:
        m_Texture: {fileID: 2800000, guid: 1a2b5591a18aac048af669a82e8208bc, type: 3}
        m_Scale: {x: 10, y: 10}
        m_Offset: {x: 0, y: 0}
    - first:
        name: _MainTex
      second:
        m_Texture: {fileID: 0}
        m_Scale: {x: 1, y: 1}
        m_Offset: {x: 0, y: 0}
    - first:
        name: _Mask
      second:
        m_Texture: {fileID: 0}
        m_Scale: {x: 1, y: 1}
        m_Offset: {x: 0, y: 0}
    - first:
        name: _Metallic
      second:
        m_Texture: {fileID: 2800000, guid: cf09c5addc714104fbd4efe956bea515, type: 3}
        m_Scale: {x: 10, y: 10}
        m_Offset: {x: 0, y: 0}
    - first:
        name: _MetallicGlossMap
      second:
        m_Texture: {fileID: 0}
        m_Scale: {x: 1, y: 1}
        m_Offset: {x: 0, y: 0}
    - first:
        name: _NormalClear
      second:
        m_Texture: {fileID: 2800000, guid: f9bf473d1dc052340aa10e82282f033f, type: 3}
        m_Scale: {x: 1, y: 1}
        m_Offset: {x: 0, y: 0}
    - first:
        name: _NormalMap
      second:
        m_Texture: {fileID: 2800000, guid: 81bd240e5b1026746a8f56882cd58054, type: 3}
        m_Scale: {x: 10, y: 10}
        m_Offset: {x: 0, y: 0}
    - first:
        name: _Occlusion
      second:
        m_Texture: {fileID: 2800000, guid: 1c0adc8c36429834387bb411b87dbe35, type: 3}
        m_Scale: {x: 10, y: 10}
        m_Offset: {x: 0, y: 0}
    - first:
        name: _OcclusionMap
      second:
        m_Texture: {fileID: 0}
        m_Scale: {x: 1, y: 1}
        m_Offset: {x: 0, y: 0}
    - first:
        name: _ParallaxMap
      second:
        m_Texture: {fileID: 0}
        m_Scale: {x: 1, y: 1}
        m_Offset: {x: 0, y: 0}
    - first:
        name: _Ripple
      second:
        m_Texture: {fileID: 0}
        m_Scale: {x: 1, y: 1}
        m_Offset: {x: 0, y: 0}
    - first:
        name: _SnowAlbedo
      second:
        m_Texture: {fileID: 2800000, guid: 731b55817eb3dae48a8c34a13354f4f7, type: 3}
        m_Scale: {x: 20, y: 20}
        m_Offset: {x: 0, y: 0}
    - first:
        name: _SnowAlbedoMap
      second:
        m_Texture: {fileID: 2800000, guid: 8c62036bc84cb264ea61aabf5773ae02, type: 3}
        m_Scale: {x: 1, y: 1}
        m_Offset: {x: 0, y: 0}
    - first:
        name: _SnowAlbedoTex
      second:
        m_Texture: {fileID: 2800000, guid: 8c62036bc84cb264ea61aabf5773ae02, type: 3}
        m_Scale: {x: 1, y: 1}
        m_Offset: {x: 0, y: 0}
    - first:
        name: _SnowMap
      second:
        m_Texture: {fileID: 2800000, guid: 00c997b45f32df94ab33b894b7615397, type: 3}
        m_Scale: {x: 1, y: 1}
        m_Offset: {x: 0, y: 0}
    - first:
        name: _SnowMask
      second:
        m_Texture: {fileID: 0}
        m_Scale: {x: 1, y: 1}
        m_Offset: {x: 0, y: 0}
    - first:
        name: _SnowNormal
      second:
        m_Texture: {fileID: 2800000, guid: fb9a336e4ad0b084f806d539d827eb2f, type: 3}
        m_Scale: {x: 20, y: 20}
        m_Offset: {x: 0, y: 0}
    - first:
        name: _SnowSpecular
      second:
        m_Texture: {fileID: 0}
        m_Scale: {x: 1, y: 1}
        m_Offset: {x: 0, y: 0}
    - first:
        name: _SnowTex
      second:
        m_Texture: {fileID: 2800000, guid: 8c62036bc84cb264ea61aabf5773ae02, type: 3}
        m_Scale: {x: 1, y: 1}
        m_Offset: {x: 0, y: 0}
    - first:
        name: _SpecGlossMap
      second:
        m_Texture: {fileID: 0}
        m_Scale: {x: 1, y: 1}
        m_Offset: {x: 0, y: 0}
    - first:
        name: _SpecMap
      second:
        m_Texture: {fileID: 2800000, guid: e3ca2eae2afadce41997355b52b43e95, type: 3}
        m_Scale: {x: 2, y: 2}
        m_Offset: {x: 0, y: 0}
    - first:
        name: _Specular
      second:
        m_Texture: {fileID: 2800000, guid: cf09c5addc714104fbd4efe956bea515, type: 3}
        m_Scale: {x: 5, y: 5}
        m_Offset: {x: 0, y: 0}
    - first:
        name: _Specular_Snow
      second:
        m_Texture: {fileID: 0}
        m_Scale: {x: 1, y: 1}
        m_Offset: {x: 0, y: 0}
    - first:
        name: _WetNormal
      second:
        m_Texture: {fileID: 2800000, guid: 13dee8e2e5968da4ebad029f32ad1198, type: 3}
        m_Scale: {x: 50, y: 50}
        m_Offset: {x: 0, y: 0}
    - first:
        name: _colorTexture
      second:
        m_Texture: {fileID: 0}
        m_Scale: {x: 1, y: 1}
        m_Offset: {x: 0, y: 0}
    - first:
        name: _icyNormals
      second:
        m_Texture: {fileID: 0}
        m_Scale: {x: 1, y: 1}
        m_Offset: {x: 0, y: 0}
    - first:
        name: _mainNormals
      second:
        m_Texture: {fileID: 0}
        m_Scale: {x: 1, y: 1}
        m_Offset: {x: 0, y: 0}
    m_Floats:
    - first:
        name: _AlphaCutOff
      second: 1
    - first:
        name: _AlphaCutOff1
      second: 0
    - first:
        name: _AnimationSPeed
      second: 0.1
    - first:
        name: _BumpScale
      second: 1
    - first:
        name: _Cutoff
      second: 0.5
    - first:
        name: _DetailIntensity
      second: 0
    - first:
        name: _DetailNormalMapScale
      second: 1
    - first:
        name: _DstBlend
      second: 0
    - first:
        name: _EmisionStrenght
      second: 0
    - first:
        name: _EmissionScaleUI
      second: 0
    - first:
        name: _EmissionStrenght
      second: 0
    - first:
        name: _EmissionStrenght_copy
      second: 0
    - first:
        name: _Gloss
      second: 0.679
    - first:
        name: _GlossDry
      second: -0.04
    - first:
        name: _GlossWet
      second: 0.902
    - first:
        name: _Glossiness
      second: 0.5
    - first:
        name: _Metallic
      second: 0
    - first:
        name: _Mode
      second: 0
    - first:
        name: _OcclusionStrenght
      second: 1
    - first:
        name: _OcclusionStrength
      second: 1
    - first:
        name: _Parallax
      second: 0.02
    - first:
        name: _Raining
      second: 0
    - first:
        name: _Smoothness_dry
      second: -0.178
    - first:
        name: _Smoothness_wet
      second: 0.796
    - first:
        name: _SnowAmount
      second: 0.2
    - first:
        name: _SnowStrenght
      second: 0
    - first:
        name: _Spec
      second: 0.1
    - first:
        name: _SpecAmount
      second: 1.07
    - first:
        name: _SrcBlend
      second: 1
    - first:
        name: _Tesslation
      second: 1
    - first:
        name: _TesslationAmount
      second: 25
    - first:
        name: _TesslationStrenght
      second: 0.6
    - first:
        name: _UVSec
      second: 0
    - first:
        name: _ZWrite
      second: 1
    - first:
        name: _glossiness
      second: 0.5
    - first:
        name: _icyness
      second: 0.5
    - first:
        name: _node_2868
      second: 10
    - first:
        name: _node_7041
      second: 0
    - first:
        name: _node_9826
      second: 0
    m_Colors:
    - first:
        name: _
      second: {r: 1, g: 1, b: 1, a: 1}
    - first:
        name: _AlbedoColor
      second: {r: 1, g: 1, b: 1, a: 1}
    - first:
        name: _Color
      second: {r: 1, g: 1, b: 1, a: 1}
    - first:
        name: _EmissionColor
      second: {r: 0, g: 0, b: 0, a: 1}
    - first:
        name: _EmissionColorUI
      second: {r: 1, g: 1, b: 1, a: 1}
    - first:
        name: _EmissionColor_copy
      second: {r: 1, g: 1, b: 1, a: 1}
    - first:
        name: _SpecColor
      second: {r: 1, g: 1, b: 1, a: 1}
    - first:
        name: _icyColor
      second: {r: 1, g: 1, b: 1, a: 1}
    - first:
        name: _node_4260
      second: {r: 0.5808823, g: 0.5808823, b: 0.5808823, a: 1}
    - first:
        name: _specularColor
      second: {r: 1, g: 1, b: 1, a: 1}
