%YAML 1.1
%TAG !u! tag:unity3d.com,2011:
--- !u!114 &11400000
MonoBehaviour:
  m_ObjectHideFlags: 0
  m_PrefabParentObject: {fileID: 0}
  m_PrefabInternal: {fileID: 0}
  m_GameObject: {fileID: 0}
  m_Enabled: 1
  m_EditorHideFlags: 0
  m_Script: {fileID: 11500000, guid: 602ee397b19802545afb850662669fb7, type: 3}
  m_Name: EventsList_ViscoComponents_ContextMenu
  m_EditorClassIdentifier: 
  _list:
  - HideGreenCube
  - ShowGreenCube
  - ToggleDoor
  - HideRedCube
  - ShowRedCube
  - OpenGreenCube
  - CloseGreenCube
  - MakeTransparentRed
  - MakeOpaqueRed
