%YAML 1.1
%TAG !u! tag:unity3d.com,2011:
--- !u!21 &2100000
Material:
  serializedVersion: 6
  m_ObjectHideFlags: 0
  m_PrefabParentObject: {fileID: 0}
  m_PrefabInternal: {fileID: 0}
  m_Name: Sunset Sky
  m_Shader: {fileID: 106, guid: 0000000000000000f000000000000000, type: 0}
  m_ShaderKeywords: _SUNDISK_HIGH_QUALITY
  m_LightmapFlags: 5
  m_CustomRenderQueue: -1
  stringTagMap: {}
  m_SavedProperties:
    serializedVersion: 2
    m_TexEnvs: {}
    m_Floats:
      data:
        first:
          name: _Exposure
        second: 1.3
      data:
        first:
          name: _SunDisk
        second: 2
      data:
        first:
          name: _SunSize
        second: 0.04
      data:
        first:
          name: _AtmosphereThickness
        second: 1.5
    m_Colors:
      data:
        first:
          name: _SkyTint
        second: {r: 0.5, g: 0.5, b: 0.5, a: 1}
      data:
        first:
          name: _GroundColor
        second: {r: 0.369, g: 0.349, b: 0.341, a: 1}
